508306524
510305699
510305742
510305767
510306322
510307936
4900306380
4900721104
4900921243
4900922713
4902920835
4903706192
4903706196
4903706216
4903720341
4903720819
4903721090
4903721722
4904120339
4904120410
4904120486
4904120841
400472013000
400630502100
400632007500
400632026200
400632038900
400632048400
400632057700
400632061200
25009212040000
25025054770000
25025057050000
25025212440000
25025218430000
25065213240000
25083211510000
25085052550000
25085212090000
25091211290000
25091212580000
25109050450000